{
    "name": "Suburb Dark",
    "comment": "Base2Tone Suburb dark variation",
    "foreground-color": "#878ba6",
    "background-color": "#1e202f",
    "use-theme-colors": false,
    "use-cursor-color": false,
    "cursor-foreground-color": "#1e202f",
    "cursor-background-color": "#878ba6",
    "use-highlight-color": false,
    "highlight-foreground-color": "#1e202f",
    "highlight-background-color": "#878ba6",
    "use-bold-color": false,
    "bold-color": "#ebedff",
    "use-badge-color": false,
    "badge-color": "#fb6fa9",
    "palette": [
        "#1e202f",
        "#7586f5",
        "#fb6fa9",
        "#ffb3d2",
        "#8696fd",
        "#fb6fa9",
        "#a0acfe",
        "#878ba6",
        "#4f5472",
        "#7586f5",
        "#fb6fa9",
        "#ffb3d2",
        "#8696fd",
        "#fb6fa9",
        "#a0acfe",
        "#ebedff"
    ]
}
