{
    "name": "Lavender Light",
    "comment": "Base2Tone Lavender light variation",
    "foreground-color": "#4b455f",
    "background-color": "#efebff",
    "use-theme-colors": false,
    "use-cursor-color": false,
    "cursor-foreground-color": "#efebff",
    "cursor-background-color": "#4b455f",
    "use-highlight-color": false,
    "highlight-foreground-color": "#efebff",
    "highlight-background-color": "#4b455f",
    "use-bold-color": false,
    "bold-color": "#201d2a",
    "use-badge-color": false,
    "badge-color": "#d294ff",
    "palette": [
        "#201d2a",
        "#9375f5",
        "#d294ff",
        "#ecd1ff",
        "#a286fd",
        "#d294ff",
        "#b5a0fe",
        "#9992b0",
        "#625a7c",
        "#9375f5",
        "#d294ff",
        "#ecd1ff",
        "#a286fd",
        "#d294ff",
        "#b5a0fe",
        "#efebff"
    ]
}
