{
    "name": "Earth Dark",
    "comment": "Base2Tone Earth dark variation",
    "foreground-color": "#b5a9a1",
    "background-color": "#322d29",
    "use-theme-colors": false,
    "use-cursor-color": false,
    "cursor-foreground-color": "#322d29",
    "cursor-background-color": "#b5a9a1",
    "use-highlight-color": false,
    "highlight-foreground-color": "#322d29",
    "highlight-background-color": "#b5a9a1",
    "use-bold-color": false,
    "bold-color": "#fff3eb",
    "use-badge-color": false,
    "badge-color": "#d9b154",
    "palette": [
        "#322d29",
        "#816d5f",
        "#d9b154",
        "#fcc440",
        "#88786d",
        "#d9b154",
        "#967e6e",
        "#b5a9a1",
        "#6a5f58",
        "#816d5f",
        "#d9b154",
        "#fcc440",
        "#88786d",
        "#d9b154",
        "#967e6e",
        "#fff3eb"
    ]
}
