{
    "name": "Cave Light",
    "comment": "Base2Tone Cave light variation",
    "foreground-color": "#565254",
    "background-color": "#ffebf2",
    "use-theme-colors": false,
    "use-cursor-color": false,
    "cursor-foreground-color": "#ffebf2",
    "cursor-background-color": "#565254",
    "use-highlight-color": false,
    "highlight-foreground-color": "#ffebf2",
    "highlight-background-color": "#565254",
    "use-bold-color": false,
    "bold-color": "#222021",
    "use-badge-color": false,
    "badge-color": "#cca133",
    "palette": [
        "#222021",
        "#936c7a",
        "#cca133",
        "#ffcc4d",
        "#9c818b",
        "#cca133",
        "#d27998",
        "#9f999b",
        "#635f60",
        "#936c7a",
        "#cca133",
        "#ffcc4d",
        "#9c818b",
        "#cca133",
        "#d27998",
        "#ffebf2"
    ]
}
