{
    "name": "Heath Light",
    "comment": "Base2Tone Heath light variation",
    "foreground-color": "#575158",
    "background-color": "#fdebff",
    "use-theme-colors": false,
    "use-cursor-color": false,
    "cursor-foreground-color": "#fdebff",
    "cursor-background-color": "#575158",
    "use-highlight-color": false,
    "highlight-foreground-color": "#fdebff",
    "highlight-background-color": "#575158",
    "use-bold-color": false,
    "bold-color": "#222022",
    "use-badge-color": false,
    "badge-color": "#cc8c33",
    "palette": [
        "#222022",
        "#8f6c93",
        "#cc8c33",
        "#ffd599",
        "#9a819c",
        "#cc8c33",
        "#cb79d2",
        "#9e999f",
        "#635f63",
        "#8f6c93",
        "#cc8c33",
        "#ffd599",
        "#9a819c",
        "#cc8c33",
        "#cb79d2",
        "#fdebff"
    ]
}
