{
    "name": "Field Light",
    "comment": "Base2Tone Field light variation",
    "foreground-color": "#42524f",
    "background-color": "#e3e8e5",
    "use-theme-colors": false,
    "use-cursor-color": false,
    "cursor-foreground-color": "#e3e8e5",
    "cursor-background-color": "#42524f",
    "use-highlight-color": false,
    "highlight-foreground-color": "#e3e8e5",
    "highlight-background-color": "#42524f",
    "use-bold-color": false,
    "bold-color": "#18201e",
    "use-badge-color": false,
    "badge-color": "#3be381",
    "palette": [
        "#18201e",
        "#0fbda0",
        "#3be381",
        "#85ffb8",
        "#25d0b4",
        "#3be381",
        "#40ddc3",
        "#8ea4a0",
        "#5a6d6a",
        "#0fbda0",
        "#3be381",
        "#85ffb8",
        "#25d0b4",
        "#3be381",
        "#40ddc3",
        "#a8fff1"
    ]
}
